blog-2017-11-13-wordcloud | Academic
…
Then we will ‘unpack’ the text column by unnesting the tokens with tidy text to get the words in Dracula. We’ll save this to a data frame Dracula_words.

dracula_words<-dracula%>%
  unnest_tokens(word,text)

We aren’t going to worry about the stop words (a, an, the, etc.) because we are going to work with ‘bing’ to rate the words as positive or negative.

bing<-get_sentiments('bing')

We’ll look at the data frame for dracula_words & bing.

dracula_words

## # A tibble: 162,577 x 2
##    gutenberg_id         word
##           <int>        <chr>
##  1          345      dracula
##  2          345      dracula
##  3          345         _by_
##  4          345         bram
##  5          345       stoker
##  6          345 illustration
##  7          345     colophon
##  8          345          new
##  9          345         york
## 10          345      grosset
## # ... with 162,567 more rows

bing

## # A tibble: 6,788 x 2
##           word sentiment
##          <chr>     <chr>
##  1     2-faced  negative
##  2     2-faces  negative
##  3          a+  positive
##  4    abnormal  negative
##  5     abolish  negative
##  6  abominable  negative
##  7  abominably  negative
##  8   abominate  negative
##  9 abomination  negative
## 10       abort  negative
## # ... with 6,778 more rows
…
